JK.vcd
$date
	Tue Apr 18 23:37:37 2023
$end
$version
	ModelSim Version 10.5b
$end
$timescale
	1ns
$end

$scope module tb_JKFF $end
$var reg 1 ! J $end
$var reg 1 " K $end
$var reg 1 # clk $end
$var reg 1 $ JA $end
$var reg 1 % KA $end
$var wire 1 & Q $end

$scope module u_JKFF $end
$var wire 1 ' J $end
$var wire 1 ( K $end
$var wire 1 ) clk $end
$var wire 1 * JA $end
$var wire 1 + KA $end
$var reg 1 , Q $end
$upscope $end
$upscope $end
$enddefinitions $end
#0
$dumpvars
0!
0"
0#
0$
0%
x,
x&
0+
0*
0)
0(
0'
$end
#1
1$
1*
1,
1&
#2
1#
1)
#3
1"
0$
1(
0*
#4
0#
0)
0,
0&
#5
0"
0(
#6
1#
1)
#7
1!
1'
#8
0#
0)
1,
1&
#9
0!
0'
#10
1#
1)
#12
0#
0)
#14
1#
1)
#15
1%
1+
0,
0&
#16
0#
0)
#17
0%
0+
#18
1#
1)
#19
1!
1"
1'
1(
#20
0#
0)
1,
1&
#21
0!
0"
0'
0(
#22
1#
1)
#23
1!
1%
1'
1+
0,
0&
#24
0#
0)
#25
0!
0%
0'
0+
